START 1553666870.094266
38f2c552edc4058e4acd56df28484e03 1553666871.038365
e48441c3fc0148e14fefe5cb199b822e 1553666871.273317
207e7f2726534596f26ec8c043cef619 1553666872.336607
f528a617eb5069cfe77ec2f4edc5973d 1553666873.309918
4c9efa141253471723910099e0fed74d 1553666873.835202
26e16ade9407d7484f1e5d275a70e41f 1553666874.473349
040a90c509644755ee2d8b00e7620768 1553666874.589001
51ad23b0736979bae7833578a53244f4 1553666875.012364
777f30bf34b4b6ef90f65f650625f581 1553666877.467442
6dd922ca94941eee50165c1062ad7361 1553666877.671972
0cb0cfd41311234d5392b4ddb45f7714 1553666878.640366
e0357c49caa7c8e3948ab9c88d80e705 1553666879.765874
130c9bcae8f75f1b3f1d5ba358266ab4 1553666882.999261
eb8ea7401b27676f6d9b2f5c27069855 1553666883.982684
d2cc8ff11d0299947918a89de7610400 1553666884.786231
e8f3758dccd2a2d682fec57068c1a4d1 1553666886.596934
5fa81f810fca2ceabe23f7485b3b63b4 1553666886.780708
b2a43e364448a7097355aa4e9cbab47f 1553666887.118373
3c33d3d24a6ed887be3db80be20fbde7 1553666888.579286
